\relax 
\select@language{english}
\@writefile{toc}{\select@language{english}}
\@writefile{lof}{\select@language{english}}
\@writefile{lot}{\select@language{english}}
\@writefile{toc}{\contentsline {title}{Fundamentals of Data Science \newline  Assignment 2}{1}}
\@writefile{toc}{\authcount {4}}
\@writefile{toc}{\contentsline {author}{Wessel Huising (10011277)\unskip {} \and Koen Vellenga (10307362)\unskip {} \and \newline  Lucas de Vries (10650881)\unskip {} \and Henk van Voorst (10088598)\unskip {}}{1}}
\@writefile{toc}{\contentsline {section}{\numberline {1}Introduction}{1}}
\citation{bollen,ciulla}
\citation{gayo}
\citation{white}
\citation{katz}
\citation{pariser}
\@writefile{toc}{\contentsline {section}{\numberline {2}Literature}{2}}
\@writefile{toc}{\contentsline {subsection}{\numberline {2.1}Twitter and politics}{2}}
\@writefile{toc}{\contentsline {subsubsection}{The new era of political communication}{2}}
\citation{hogeboom,hogeboom2,serrano,ren}
\citation{pang}
\citation{pang,go}
\citation{abdel}
\citation{pang,turney}
\citation{zhao}
\citation{michelson}
\@writefile{toc}{\contentsline {subsection}{\numberline {2.2}Extracting information out from Twitter}{3}}
\@writefile{toc}{\contentsline {subsubsection}{Sentiment analysis}{3}}
\@writefile{toc}{\contentsline {subsubsection}{Topic modelling}{3}}
\@writefile{toc}{\contentsline {section}{\numberline {3}Method}{4}}
\@writefile{toc}{\contentsline {subsection}{\numberline {3.1}Extracting tweets}{4}}
\@writefile{lof}{\contentsline {figure}{\numberline {1}{\ignorespaces Diagram of the filtering process\relax }}{4}}
\providecommand*\caption@xref[2]{\@setref\relax\@undefined{#1}}
\newlabel{fig:sank}{{1}{4}}
\@writefile{toc}{\contentsline {subsection}{\numberline {3.2}Datasets}{4}}
\@writefile{toc}{\contentsline {subsubsection}{Health}{4}}
\@writefile{toc}{\contentsline {subsubsection}{Education}{4}}
\citation{pang}
\@writefile{toc}{\contentsline {subsubsection}{Crime}{5}}
\@writefile{toc}{\contentsline {subsubsection}{Income}{5}}
\@writefile{toc}{\contentsline {subsubsection}{Demography}{5}}
\@writefile{toc}{\contentsline {subsubsection}{Religion}{5}}
\@writefile{toc}{\contentsline {subsection}{\numberline {3.3}Classifiers}{5}}
\@writefile{toc}{\contentsline {subsubsection}{Sentiment}{5}}
\@writefile{toc}{\contentsline {subsubsection}{Trump or Clinton?}{5}}
\citation{blei,ren}
\citation{salton}
\@writefile{lof}{\contentsline {figure}{\numberline {2}{\ignorespaces The total amount of tweets (30,448) with users originating from California has been plotted. 21,610 of these tweets were about Trump, the remaining tweets were classified with the subject Clinton. Further, the sentiment of the tweets is shown in the diagram.\relax }}{6}}
\newlabel{fig:cali}{{2}{6}}
\@writefile{toc}{\contentsline {subsection}{\numberline {3.4}Topic Modelling}{6}}
\@writefile{toc}{\contentsline {subsection}{\numberline {3.5}TF-IDF}{6}}
\@writefile{toc}{\contentsline {section}{\numberline {4}Results}{6}}
\@writefile{toc}{\contentsline {subsection}{\numberline {4.1}Visualizations}{6}}
\newlabel{fig:f1}{{3a}{7}}
\newlabel{sub@fig:f1}{{a}{7}}
\newlabel{fig:f2}{{3b}{7}}
\newlabel{sub@fig:f2}{{b}{7}}
\@writefile{lof}{\contentsline {figure}{\numberline {3}{\ignorespaces Sentiment per state in tweets for the election candidates\relax }}{7}}
\newlabel{fig:f3}{{4a}{7}}
\newlabel{sub@fig:f3}{{a}{7}}
\newlabel{fig:f4}{{4b}{7}}
\newlabel{sub@fig:f4}{{b}{7}}
\@writefile{lof}{\contentsline {figure}{\numberline {4}{\ignorespaces Difference in amount of tweets per sentiment and candidate\relax }}{7}}
\newlabel{fig:f5}{{5a}{7}}
\newlabel{sub@fig:f5}{{a}{7}}
\newlabel{fig:f6}{{5b}{7}}
\newlabel{sub@fig:f6}{{b}{7}}
\@writefile{lof}{\contentsline {figure}{\numberline {5}{\ignorespaces Intensity overview of tweets per day per hour\relax }}{7}}
\@writefile{toc}{\contentsline {subsection}{\numberline {4.2}Topic Modelling}{7}}
\newlabel{fig:f7}{{6a}{8}}
\newlabel{sub@fig:f7}{{a}{8}}
\newlabel{fig:f8}{{6b}{8}}
\newlabel{sub@fig:f8}{{b}{8}}
\@writefile{lof}{\contentsline {figure}{\numberline {6}{\ignorespaces Tweet sentiment per state\relax }}{8}}
\newlabel{fig:f9}{{7a}{8}}
\newlabel{sub@fig:f9}{{a}{8}}
\newlabel{fig:f10}{{7b}{8}}
\newlabel{sub@fig:f10}{{b}{8}}
\@writefile{lof}{\contentsline {figure}{\numberline {7}{\ignorespaces Wordcloud per candidate\relax }}{8}}
\@writefile{toc}{\contentsline {subsubsection}{Term Frequency-Inversed Document Frequency}{8}}
\@writefile{toc}{\contentsline {subsection}{\numberline {4.3}Correlations}{8}}
\@writefile{toc}{\contentsline {section}{\numberline {5}Conclusion, Discussion, Future Research}{8}}
\bibstyle{sort}
\bibcite{abdel}{1}
\bibcite{blei}{2}
\bibcite{bollen}{3}
\bibcite{ciulla}{4}
\bibcite{gayo}{5}
\bibcite{go}{6}
\bibcite{hogeboom}{7}
\bibcite{hogeboom2}{8}
\bibcite{katz}{9}
\bibcite{michelson}{10}
\bibcite{pang}{11}
\bibcite{pariser}{12}
\bibcite{ren}{13}
\bibcite{salton}{14}
\bibcite{serrano}{15}
\bibcite{turney}{16}
\newlabel{fig:f10}{{8a}{9}}
\newlabel{sub@fig:f10}{{a}{9}}
\newlabel{fig:f11}{{8b}{9}}
\newlabel{sub@fig:f11}{{b}{9}}
\@writefile{lof}{\contentsline {figure}{\numberline {8}{\ignorespaces Example output of TF-IDF scores for a state\relax }}{9}}
\newlabel{abdel}{{1}{9}}
\newlabel{blei}{{2}{9}}
\newlabel{bollen}{{3}{9}}
\newlabel{ciulla}{{4}{9}}
\newlabel{gayo}{{5}{9}}
\newlabel{go}{{6}{9}}
\newlabel{hogeboom}{{7}{9}}
\newlabel{hogeboom2}{{8}{9}}
\newlabel{michelson}{{10}{9}}
\newlabel{pang}{{11}{9}}
\newlabel{ren}{{13}{9}}
\newlabel{salton}{{14}{9}}
\bibcite{white}{17}
\bibcite{zhao}{18}
\newlabel{serrano}{{15}{10}}
\newlabel{turney}{{16}{10}}
\newlabel{zhao}{{18}{10}}
\@writefile{toc}{\contentsline {section}{\numberline {A}Appendix}{11}}
\@writefile{toc}{\contentsline {subsection}{\numberline {A.1}Intensity Heatmaps}{11}}
\@writefile{lof}{\contentsline {figure}{\numberline {9}{\ignorespaces Intensity of negative tweets per hour of the day\relax }}{11}}
\newlabel{fig:neg_hour}{{9}{11}}
\@writefile{lof}{\contentsline {figure}{\numberline {10}{\ignorespaces Intensity of positive tweets per hour of the day\relax }}{11}}
\newlabel{fig:pos_hour}{{10}{11}}
