\relax 
\citation{wang,kwak}
\citation{naaman,java}
\citation{kwak,jungherr}
\citation{jungherr,garcia}
\citation{jungherr}
\citation{medhat,garcia}
\citation{kumar,pak,saif}
\citation{jungherr,tumasjan,digrazia}
\citation{tumasjan,jungherr}
\citation{digrazia}
\citation{oconnor}
\citation{bakshy-iden,dubois}
\citation{grassegger}
\select@language{english}
\@writefile{toc}{\select@language{english}}
\@writefile{lof}{\select@language{english}}
\@writefile{lot}{\select@language{english}}
\@writefile{toc}{\contentsline {title}{Fundamentals of Data Science \newline  Assignment 2}{1}}
\@writefile{toc}{\authcount {4}}
\@writefile{toc}{\contentsline {author}{Wessel Huising (10011277)\unskip {} \and Koen Vellenga (10307362)\unskip {} \and \newline  Lucas de Vries (10650881)\unskip {} \and Henk van Voorst (10088598)\unskip {}}{1}}
\@writefile{toc}{\contentsline {section}{\numberline {1}Introduction}{1}}
\citation{bakshy-quant}
\citation{jansen}
\citation{himel,barbera}
\citation{bakshy-quant}
\citation{jungherr}
\citation{gayo}
\citation{hogeboom,hogeboom2,serrano,ren}
\citation{pang}
\citation{pang,go}
\citation{abdel}
\citation{pang,turney}
\@writefile{toc}{\contentsline {section}{\numberline {2}Literature}{2}}
\@writefile{toc}{\contentsline {subsubsection}{The new era of political communication}{2}}
\@writefile{toc}{\contentsline {subsection}{\numberline {2.1}Twitter research}{2}}
\@writefile{toc}{\contentsline {subsection}{\numberline {2.2}Extracting information out from Twitter}{2}}
\@writefile{toc}{\contentsline {subsubsection}{Sentiment analysis}{2}}
\citation{zhao}
\citation{michelson}
\@writefile{toc}{\contentsline {subsubsection}{Topic modelling}{3}}
\@writefile{toc}{\contentsline {section}{\numberline {3}Method}{3}}
\@writefile{toc}{\contentsline {subsection}{\numberline {3.1}Extracting tweets}{3}}
\@writefile{toc}{\contentsline {subsection}{\numberline {3.2}Datasets}{3}}
\@writefile{toc}{\contentsline {subsubsection}{Health}{3}}
\citation{pang}
\@writefile{lof}{\contentsline {figure}{\numberline {1}{\ignorespaces Diagram of the filtering process.\relax }}{4}}
\providecommand*\caption@xref[2]{\@setref\relax\@undefined{#1}}
\newlabel{fig:sank}{{1}{4}}
\@writefile{toc}{\contentsline {subsubsection}{Education}{4}}
\@writefile{toc}{\contentsline {subsubsection}{Crime}{4}}
\@writefile{toc}{\contentsline {subsubsection}{Income}{4}}
\@writefile{toc}{\contentsline {subsubsection}{Demography}{4}}
\@writefile{toc}{\contentsline {subsubsection}{Religion}{4}}
\@writefile{toc}{\contentsline {subsection}{\numberline {3.3}Classifiers}{4}}
\@writefile{toc}{\contentsline {subsubsection}{Sentiment}{4}}
\citation{blei,ren}
\@writefile{toc}{\contentsline {subsubsection}{Trump or Clinton?}{5}}
\@writefile{lof}{\contentsline {figure}{\numberline {2}{\ignorespaces The total amount of tweets (30,448) with users originating from California has been plotted. 21,610 of these tweets were about Trump, the remaining tweets were classified with the subject Clinton. Further, the sentiment of the tweets is shown in the diagram.\relax }}{5}}
\newlabel{fig:cali}{{2}{5}}
\@writefile{toc}{\contentsline {subsection}{\numberline {3.4}Topic Modelling}{5}}
\citation{salton}
\@writefile{toc}{\contentsline {subsection}{\numberline {3.5}TF-IDF}{6}}
\@writefile{toc}{\contentsline {subsection}{\numberline {3.6}Correlating sentiment with characteristics}{6}}
\@writefile{toc}{\contentsline {section}{\numberline {4}Results}{6}}
\@writefile{toc}{\contentsline {subsection}{\numberline {4.1}Visualizations}{6}}
\newlabel{fig:f1}{{3a}{7}}
\newlabel{sub@fig:f1}{{a}{7}}
\newlabel{fig:f2}{{3b}{7}}
\newlabel{sub@fig:f2}{{b}{7}}
\@writefile{lof}{\contentsline {figure}{\numberline {3}{\ignorespaces Sentiment per state in tweets for the election candidates.\relax }}{7}}
\newlabel{fig:f3}{{4a}{7}}
\newlabel{sub@fig:f3}{{a}{7}}
\newlabel{fig:f4}{{4b}{7}}
\newlabel{sub@fig:f4}{{b}{7}}
\@writefile{lof}{\contentsline {figure}{\numberline {4}{\ignorespaces Difference in amount of tweets per sentiment and candidate.\relax }}{7}}
\newlabel{fig:f5}{{5a}{7}}
\newlabel{sub@fig:f5}{{a}{7}}
\newlabel{fig:f6}{{5b}{7}}
\newlabel{sub@fig:f6}{{b}{7}}
\@writefile{lof}{\contentsline {figure}{\numberline {5}{\ignorespaces Intensity overview of tweets per day per hour.\relax }}{7}}
\newlabel{fig:f7}{{6a}{7}}
\newlabel{sub@fig:f7}{{a}{7}}
\newlabel{fig:f8}{{6b}{7}}
\newlabel{sub@fig:f8}{{b}{7}}
\@writefile{lof}{\contentsline {figure}{\numberline {6}{\ignorespaces Tweet sentiment per state.\relax }}{7}}
\@writefile{toc}{\contentsline {subsection}{\numberline {4.2}Topic Modelling}{8}}
\newlabel{fig:f9}{{7a}{8}}
\newlabel{sub@fig:f9}{{a}{8}}
\newlabel{fig:f10}{{7b}{8}}
\newlabel{sub@fig:f10}{{b}{8}}
\@writefile{lof}{\contentsline {figure}{\numberline {7}{\ignorespaces Wordcloud per candidate.\relax }}{8}}
\@writefile{toc}{\contentsline {subsubsection}{Term Frequency-Inversed Document Frequency}{8}}
\newlabel{fig:f10}{{8a}{8}}
\newlabel{sub@fig:f10}{{a}{8}}
\newlabel{fig:f11}{{8b}{8}}
\newlabel{sub@fig:f11}{{b}{8}}
\@writefile{lof}{\contentsline {figure}{\numberline {8}{\ignorespaces Example output of TF-IDF scores for a state.\relax }}{8}}
\@writefile{toc}{\contentsline {subsection}{\numberline {4.3}Correlating sentiment with characteristics}{8}}
\@writefile{toc}{\contentsline {section}{\numberline {5}Discussion}{9}}
\@writefile{toc}{\contentsline {section}{\numberline {6}Conclusion}{9}}
\@writefile{toc}{\contentsline {section}{\numberline {7}Future research}{9}}
\bibstyle{sort}
\bibcite{kwak}{1}
\bibcite{wang}{2}
\bibcite{java}{3}
\bibcite{naaman}{4}
\bibcite{jungherr}{5}
\bibcite{garcia}{6}
\bibcite{medhat}{7}
\bibcite{kumar}{8}
\bibcite{pak}{9}
\bibcite{saif}{10}
\bibcite{digrazia}{11}
\bibcite{tumasjan}{12}
\bibcite{oconnor}{13}
\bibcite{bakshy-iden}{14}
\bibcite{dubois}{15}
\bibcite{grassegger}{16}
\bibcite{bakshy-quant}{17}
\bibcite{jansen}{18}
\bibcite{barbera}{19}
\newlabel{kwak}{{1}{10}}
\newlabel{wang}{{2}{10}}
\newlabel{java}{{3}{10}}
\newlabel{naaman}{{4}{10}}
\newlabel{jungherr}{{5}{10}}
\newlabel{garcia}{{6}{10}}
\newlabel{medhat}{{7}{10}}
\newlabel{kumar}{{8}{10}}
\newlabel{pak}{{9}{10}}
\newlabel{saif}{{10}{10}}
\newlabel{digrazia}{{11}{10}}
\newlabel{tumasjan}{{12}{10}}
\newlabel{oconnor}{{13}{10}}
\newlabel{bakshy-iden}{{14}{10}}
\newlabel{dubois}{{15}{10}}
\newlabel{grassegger}{{16}{10}}
\newlabel{bakshy-quant}{{17}{10}}
\newlabel{jansen}{{18}{10}}
\bibcite{himel}{20}
\bibcite{bollen}{21}
\bibcite{ciulla}{22}
\bibcite{gayo}{23}
\bibcite{hogeboom2}{24}
\bibcite{hogeboom}{25}
\bibcite{serrano}{26}
\bibcite{ren}{27}
\bibcite{pang}{28}
\bibcite{go}{29}
\bibcite{abdel}{30}
\bibcite{turney}{31}
\bibcite{zhao}{32}
\bibcite{michelson}{33}
\bibcite{blei}{34}
\bibcite{salton}{35}
\newlabel{barbera}{{19}{11}}
\newlabel{himel}{{20}{11}}
\newlabel{bollen}{{21}{11}}
\newlabel{ciulla}{{22}{11}}
\newlabel{gayo}{{23}{11}}
\newlabel{hogeboom2}{{24}{11}}
\newlabel{hogeboom}{{25}{11}}
\newlabel{serrano}{{26}{11}}
\newlabel{ren}{{27}{11}}
\newlabel{pang}{{28}{11}}
\newlabel{go}{{29}{11}}
\newlabel{abdel}{{30}{11}}
\newlabel{turney}{{31}{11}}
\newlabel{zhao}{{32}{11}}
\newlabel{michelson}{{33}{11}}
\newlabel{blei}{{34}{11}}
\newlabel{salton}{{35}{11}}
\@writefile{toc}{\contentsline {section}{\numberline {A}Appendix}{12}}
\@writefile{toc}{\contentsline {subsection}{\numberline {A.1}Intensity Heatmaps}{12}}
\@writefile{lof}{\contentsline {figure}{\numberline {9}{\ignorespaces Intensity of negative tweets per hour of the day.\relax }}{12}}
\newlabel{fig:neg_hour}{{9}{12}}
\@writefile{lof}{\contentsline {figure}{\numberline {10}{\ignorespaces Intensity of positive tweets per hour of the day.\relax }}{12}}
\newlabel{fig:pos_hour}{{10}{12}}
\@writefile{lof}{\contentsline {figure}{\numberline {11}{\ignorespaces Correlations and p-values for all Twitter parameter outputs.\relax }}{13}}
\newlabel{fig:neg_hour}{{11}{13}}
